{
  "89ed26367cdb9b771858e026f2eb95bfdb90e5ae943e716575327ec325f39c44": true,
  "a986f9181ee323235f7807aa83b28e57c6455550f6540f4cc7f949d9d0e1c648": true,
  "2f57be2e4e4f07fcf5b4017a30ce07332de92eee47cb3ff3e0677686d0210dc1": true,
  "a11b96bc0d3d79de3456481b00c5669ad9c7d9a518739c00eb11b3d9523edfc3": true,
  "cbe7f9f9ab2646a5acd6a2f4d15370f86cf8e0a3c78bb210b64d5f2c296af05c": true,
  "5bc7727c62119c0fb3ba2bbf3fe2a8b59b4a2f89a6d0c81d409ba2559cfc3f3a": true,
  "fbf74df9c29c20aa2561aa18c30eb087580be04c126e5b805db31a744f820277": true,
  "bfc98ef987dde19d570db2f709e0064b05e8b0e7db2721c781d1cfda44ff8bb0": true,
  "c778e17826bf653ba1ee29ec0bf1bbbfc824c6bc2aedd26076d5fe0aa1d1d490": true,
  "103fecd3a302a1632b7415e09962389cc5f4a733ce81bd368c4f614544c005e7": true,
  "ad3cea9dbefc5a0fd41dded17453cf3e650b84629f29a22195400bb6c7e40dc5": true,
  "0190b41bb8efb96a24790b847b235139776a8e7284df04053b90ac1c26c5a961": true,
  "0ed1679a9f9c3a1a9f7a0bb88b6227c70a446f1cdd416ec5b8b13ca2babd04f4": true,
  "6f1f05fcbc3e5aca319069049341b505a493a7fe44fd59e055a3f9d2f37e42a7": true,
  "f8e84c8e238709b29b19865f027be803bb65a2aff574681ca648e04bb18aefb7": true,
  "b70d1654be268b4e0fbe7589f77b3887ab1ee696eb4bb09fd4bdd1524b27ef2e": true,
  "a3fd83793ba44c8b25617600c0dcf4fff2f9d654b7e966b2614bf4967620310b": true,
  "6dc2845fb5bd42c842918af4339779b204eeaac7d105852da735a12d7df8c465": true,
  "f6b051686a9823c2f8065326f888f4657e3aad2bbde89426136563c066cc77bc": true,
  "51a5ae3aba19113f25006cf5f104b7dc7bac861eccd06fac8e30419ae1af0176": true,
  "3a60968a86560994f27a690e9ab8b09455bd0469f5767f87ab52e70be55583ca": true,
  "3bbc2e42c26d0c14d0464c1097dde5b17f67cc9dc2dfd552f1e274ad09cb6d9e": true,
  "3c57ffbe767a1556db2db538d07b7ecf4abc0d1a7cb86e8398032122eea85809": true,
  "faaf061fc41c18ddce6735df88ccab71cb2edf38dc0406eaeb9391a03c5c6f73": true,
  "491737eac1f136742859f611bc2d1a757407394cf84b97f0968058018df812ac": true,
  "c3aa1dd50146a8cbe81d517ea2e7c58bd1af5af93d93497d231b47b98871430f": true
}